milestone1
…
In [22]:

%%time
%%R -i r_table

start_time <- Sys.time()
result <- r_table %>% collect() %>% count(model)
end_time <- Sys.time()
print(result)

print(end_time - start_time)

# A tibble: 27 x 2
   model                  n
   <chr>              <int>
 1 ACCESS-CM2       1932840
 2 ACCESS-ESM1-5    1610700
 3 AWI-ESM-1-1-LR    966420
 4 BCC-CSM2-MR      3035340
 5 BCC-ESM1          551880
 6 CanESM5           551880
 7 CMCC-CM2-HR4     3541230
 8 CMCC-CM2-SR5     3541230
 9 CMCC-ESM2        3541230
10 EC-Earth3-Veg-LR 3037320
#  with 17 more rows
…
%%time
%%R

start_time <- Sys.time()
ft_df <- arrow::read_feather("figshareairline/final.feather",
                             col_select = c("time", "rain (mm/day)", "model"))
result <- ft_df %>% count(model)
end_time <- Sys.time()

print(result)

print(end_time - start_time)

# A tibble: 27 x 2
   model                  n
   <chr>              <int>
 1 ACCESS-CM2       1932840
 2 ACCESS-ESM1-5    1610700
 3 AWI-ESM-1-1-LR    966420
 4 BCC-CSM2-MR      3035340
 5 BCC-ESM1          551880
 6 CanESM5           551880
 7 CMCC-CM2-HR4     3541230
 8 CMCC-CM2-SR5     3541230
 9 CMCC-ESM2        3541230
10 EC-Earth3-Veg-LR 3037320
#  with 17 more rows
…
Read from parquet:

In [27]:

%%time
%%R
start_time <- Sys.time()
pq_df <- arrow::read_parquet("figshareairline/final.parquet", col_select = c("time", "rain (mm/day)", "model"))
result <- pq_df %>% count(model)
end_time <- Sys.time()
print(result)

print(end_time - start_time)

# A tibble: 27 x 2
   model                  n
   <chr>              <int>
 1 ACCESS-CM2       1932840
 2 ACCESS-ESM1-5    1610700
 3 AWI-ESM-1-1-LR    966420
 4 BCC-CSM2-MR      3035340
 5 BCC-ESM1          551880
 6 CanESM5           551880
 7 CMCC-CM2-HR4     3541230
 8 CMCC-CM2-SR5     3541230
 9 CMCC-ESM2        3541230
10 EC-Earth3-Veg-LR 3037320
#  with 17 more rows
…
